{
  "contractName": "IERC721Metadata",
  "abi": [
    {
      "anonymous": false,
      "inputs": [
        {
          "indexed": true,
          "internalType": "address",
          "name": "owner",
          "type": "address"
        },
        {
          "indexed": true,
          "internalType": "address",
          "name": "approved",
          "type": "address"
        },
        {
          "indexed": true,
          "internalType": "uint256",
          "name": "tokenId",
          "type": "uint256"
        }
      ],
      "name": "Approval",
      "type": "event"
    },
    {
      "anonymous": false,
      "inputs": [
        {
          "indexed": true,
          "internalType": "address",
          "name": "owner",
          "type": "address"
        },
        {
          "indexed": true,
          "internalType": "address",
          "name": "operator",
          "type": "address"
        },
        {
          "indexed": false,
          "internalType": "bool",
          "name": "approved",
          "type": "bool"
        }
      ],
      "name": "ApprovalForAll",
      "type": "event"
    },
    {
      "anonymous": false,
      "inputs": [
        {
          "indexed": true,
          "internalType": "address",
          "name": "from",
          "type": "address"
        },
        {
          "indexed": true,
          "internalType": "address",
          "name": "to",
          "type": "address"
        },
        {
          "indexed": true,
          "internalType": "uint256",
          "name": "tokenId",
          "type": "uint256"
        }
      ],
      "name": "Transfer",
      "type": "event"
    },
    {
      "inputs": [
        {
          "internalType": "address",
          "name": "to",
          "type": "address"
        },
        {
          "internalType": "uint256",
          "name": "tokenId",
          "type": "uint256"
        }
      ],
      "name": "approve",
      "outputs": [],
      "stateMutability": "nonpayable",
      "type": "function"
    },
    {
      "inputs": [
        {
          "internalType": "address",
          "name": "owner",
          "type": "address"
        }
      ],
      "name": "balanceOf",
      "outputs": [
        {
          "internalType": "uint256",
          "name": "balance",
          "type": "uint256"
        }
      ],
      "stateMutability": "view",
      "type": "function"
    },
    {
      "inputs": [
        {
          "internalType": "uint256",
          "name": "tokenId",
          "type": "uint256"
        }
      ],
      "name": "getApproved",
      "outputs": [
        {
          "internalType": "address",
          "name": "operator",
          "type": "address"
        }
      ],
      "stateMutability": "view",
      "type": "function"
    },
    {
      "inputs": [
        {
          "internalType": "address",
          "name": "owner",
          "type": "address"
        },
        {
          "internalType": "address",
          "name": "operator",
          "type": "address"
        }
      ],
      "name": "isApprovedForAll",
      "outputs": [
        {
          "internalType": "bool",
          "name": "",
          "type": "bool"
        }
      ],
      "stateMutability": "view",
      "type": "function"
    },
    {
      "inputs": [
        {
          "internalType": "uint256",
          "name": "tokenId",
          "type": "uint256"
        }
      ],
      "name": "ownerOf",
      "outputs": [
        {
          "internalType": "address",
          "name": "owner",
          "type": "address"
        }
      ],
      "stateMutability": "view",
      "type": "function"
    },
    {
      "inputs": [
        {
          "internalType": "address",
          "name": "from",
          "type": "address"
        },
        {
          "internalType": "address",
          "name": "to",
          "type": "address"
        },
        {
          "internalType": "uint256",
          "name": "tokenId",
          "type": "uint256"
        }
      ],
      "name": "safeTransferFrom",
      "outputs": [],
      "stateMutability": "nonpayable",
      "type": "function"
    },
    {
      "inputs": [
        {
          "internalType": "address",
          "name": "from",
          "type": "address"
        },
        {
          "internalType": "address",
          "name": "to",
          "type": "address"
        },
        {
          "internalType": "uint256",
          "name": "tokenId",
          "type": "uint256"
        },
        {
          "internalType": "bytes",
          "name": "data",
          "type": "bytes"
        }
      ],
      "name": "safeTransferFrom",
      "outputs": [],
      "stateMutability": "nonpayable",
      "type": "function"
    },
    {
      "inputs": [
        {
          "internalType": "address",
          "name": "operator",
          "type": "address"
        },
        {
          "internalType": "bool",
          "name": "_approved",
          "type": "bool"
        }
      ],
      "name": "setApprovalForAll",
      "outputs": [],
      "stateMutability": "nonpayable",
      "type": "function"
    },
    {
      "inputs": [
        {
          "internalType": "bytes4",
          "name": "interfaceId",
          "type": "bytes4"
        }
      ],
      "name": "supportsInterface",
      "outputs": [
        {
          "internalType": "bool",
          "name": "",
          "type": "bool"
        }
      ],
      "stateMutability": "view",
      "type": "function"
    },
    {
      "inputs": [
        {
          "internalType": "address",
          "name": "from",
          "type": "address"
        },
        {
          "internalType": "address",
          "name": "to",
          "type": "address"
        },
        {
          "internalType": "uint256",
          "name": "tokenId",
          "type": "uint256"
        }
      ],
      "name": "transferFrom",
      "outputs": [],
      "stateMutability": "nonpayable",
      "type": "function"
    },
    {
      "inputs": [],
      "name": "name",
      "outputs": [
        {
          "internalType": "string",
          "name": "",
          "type": "string"
        }
      ],
      "stateMutability": "view",
      "type": "function"
    },
    {
      "inputs": [],
      "name": "symbol",
      "outputs": [
        {
          "internalType": "string",
          "name": "",
          "type": "string"
        }
      ],
      "stateMutability": "view",
      "type": "function"
    },
    {
      "inputs": [
        {
          "internalType": "uint256",
          "name": "tokenId",
          "type": "uint256"
        }
      ],
      "name": "tokenURI",
      "outputs": [
        {
          "internalType": "string",
          "name": "",
          "type": "string"
        }
      ],
      "stateMutability": "view",
      "type": "function"
    }
  ],
  "metadata": "{\"compiler\":{\"version\":\"0.6.6+commit.6c089d02\"},\"language\":\"Solidity\",\"output\":{\"abi\":[{\"anonymous\":false,\"inputs\":[{\"indexed\":true,\"internalType\":\"address\",\"name\":\"owner\",\"type\":\"address\"},{\"indexed\":true,\"internalType\":\"address\",\"name\":\"approved\",\"type\":\"address\"},{\"indexed\":true,\"internalType\":\"uint256\",\"name\":\"tokenId\",\"type\":\"uint256\"}],\"name\":\"Approval\",\"type\":\"event\"},{\"anonymous\":false,\"inputs\":[{\"indexed\":true,\"internalType\":\"address\",\"name\":\"owner\",\"type\":\"address\"},{\"indexed\":true,\"internalType\":\"address\",\"name\":\"operator\",\"type\":\"address\"},{\"indexed\":false,\"internalType\":\"bool\",\"name\":\"approved\",\"type\":\"bool\"}],\"name\":\"ApprovalForAll\",\"type\":\"event\"},{\"anonymous\":false,\"inputs\":[{\"indexed\":true,\"internalType\":\"address\",\"name\":\"from\",\"type\":\"address\"},{\"indexed\":true,\"internalType\":\"address\",\"name\":\"to\",\"type\":\"address\"},{\"indexed\":true,\"internalType\":\"uint256\",\"name\":\"tokenId\",\"type\":\"uint256\"}],\"name\":\"Transfer\",\"type\":\"event\"},{\"inputs\":[{\"internalType\":\"address\",\"name\":\"to\",\"type\":\"address\"},{\"internalType\":\"uint256\",\"name\":\"tokenId\",\"type\":\"uint256\"}],\"name\":\"approve\",\"outputs\":[],\"stateMutability\":\"nonpayable\",\"type\":\"function\"},{\"inputs\":[{\"internalType\":\"address\",\"name\":\"owner\",\"type\":\"address\"}],\"name\":\"balanceOf\",\"outputs\":[{\"internalType\":\"uint256\",\"name\":\"balance\",\"type\":\"uint256\"}],\"stateMutability\":\"view\",\"type\":\"function\"},{\"inputs\":[{\"internalType\":\"uint256\",\"name\":\"tokenId\",\"type\":\"uint256\"}],\"name\":\"getApproved\",\"outputs\":[{\"internalType\":\"address\",\"name\":\"operator\",\"type\":\"address\"}],\"stateMutability\":\"view\",\"type\":\"function\"},{\"inputs\":[{\"internalType\":\"address\",\"name\":\"owner\",\"type\":\"address\"},{\"internalType\":\"address\",\"name\":\"operator\",\"type\":\"address\"}],\"name\":\"isApprovedForAll\",\"outputs\":[{\"internalType\":\"bool\",\"name\":\"\",\"type\":\"bool\"}],\"stateMutability\":\"view\",\"type\":\"function\"},{\"inputs\":[],\"name\":\"name\",\"outputs\":[{\"internalType\":\"string\",\"name\":\"\",\"type\":\"string\"}],\"stateMutability\":\"view\",\"type\":\"function\"},{\"inputs\":[{\"internalType\":\"uint256\",\"name\":\"tokenId\",\"type\":\"uint256\"}],\"name\":\"ownerOf\",\"outputs\":[{\"internalType\":\"address\",\"name\":\"owner\",\"type\":\"address\"}],\"stateMutability\":\"view\",\"type\":\"function\"},{\"inputs\":[{\"internalType\":\"address\",\"name\":\"from\",\"type\":\"address\"},{\"internalType\":\"address\",\"name\":\"to\",\"type\":\"address\"},{\"internalType\":\"uint256\",\"name\":\"tokenId\",\"type\":\"uint256\"}],\"name\":\"safeTransferFrom\",\"outputs\":[],\"stateMutability\":\"nonpayable\",\"type\":\"function\"},{\"inputs\":[{\"internalType\":\"address\",\"name\":\"from\",\"type\":\"address\"},{\"internalType\":\"address\",\"name\":\"to\",\"type\":\"address\"},{\"internalType\":\"uint256\",\"name\":\"tokenId\",\"type\":\"uint256\"},{\"internalType\":\"bytes\",\"name\":\"data\",\"type\":\"bytes\"}],\"name\":\"safeTransferFrom\",\"outputs\":[],\"stateMutability\":\"nonpayable\",\"type\":\"function\"},{\"inputs\":[{\"internalType\":\"address\",\"name\":\"operator\",\"type\":\"address\"},{\"internalType\":\"bool\",\"name\":\"_approved\",\"type\":\"bool\"}],\"name\":\"setApprovalForAll\",\"outputs\":[],\"stateMutability\":\"nonpayable\",\"type\":\"function\"},{\"inputs\":[{\"internalType\":\"bytes4\",\"name\":\"interfaceId\",\"type\":\"bytes4\"}],\"name\":\"supportsInterface\",\"outputs\":[{\"internalType\":\"bool\",\"name\":\"\",\"type\":\"bool\"}],\"stateMutability\":\"view\",\"type\":\"function\"},{\"inputs\":[],\"name\":\"symbol\",\"outputs\":[{\"internalType\":\"string\",\"name\":\"\",\"type\":\"string\"}],\"stateMutability\":\"view\",\"type\":\"function\"},{\"inputs\":[{\"internalType\":\"uint256\",\"name\":\"tokenId\",\"type\":\"uint256\"}],\"name\":\"tokenURI\",\"outputs\":[{\"internalType\":\"string\",\"name\":\"\",\"type\":\"string\"}],\"stateMutability\":\"view\",\"type\":\"function\"},{\"inputs\":[{\"internalType\":\"address\",\"name\":\"from\",\"type\":\"address\"},{\"internalType\":\"address\",\"name\":\"to\",\"type\":\"address\"},{\"internalType\":\"uint256\",\"name\":\"tokenId\",\"type\":\"uint256\"}],\"name\":\"transferFrom\",\"outputs\":[],\"stateMutability\":\"nonpayable\",\"type\":\"function\"}],\"devdoc\":{\"details\":\"See https://eips.ethereum.org/EIPS/eip-721\",\"methods\":{\"approve(address,uint256)\":{\"details\":\"Gives permission to `to` to transfer `tokenId` token to another account. The approval is cleared when the token is transferred.     * Only a single account can be approved at a time, so approving the zero address clears previous approvals.     * Requirements:     * - The caller must own the token or be an approved operator. - `tokenId` must exist.     * Emits an {Approval} event.\"},\"balanceOf(address)\":{\"details\":\"Returns the number of tokens in ``owner``'s account.\"},\"getApproved(uint256)\":{\"details\":\"Returns the account approved for `tokenId` token.     * Requirements:     * - `tokenId` must exist.\"},\"isApprovedForAll(address,address)\":{\"details\":\"Returns if the `operator` is allowed to manage all of the assets of `owner`.     * See {setApprovalForAll}\"},\"name()\":{\"details\":\"Returns the token collection name.\"},\"ownerOf(uint256)\":{\"details\":\"Returns the owner of the `tokenId` token.     * Requirements:     * - `tokenId` must exist.\"},\"safeTransferFrom(address,address,uint256)\":{\"details\":\"Safely transfers `tokenId` token from `from` to `to`, checking first that contract recipients are aware of the ERC721 protocol to prevent tokens from being forever locked.     * Requirements:     * - `from` cannot be the zero address. - `to` cannot be the zero address. - `tokenId` token must exist and be owned by `from`. - If the caller is not `from`, it must be have been allowed to move this token by either {approve} or {setApprovalForAll}. - If `to` refers to a smart contract, it must implement {IERC721Receiver-onERC721Received}, which is called upon a safe transfer.     * Emits a {Transfer} event.\"},\"safeTransferFrom(address,address,uint256,bytes)\":{\"details\":\"Safely transfers `tokenId` token from `from` to `to`.      * Requirements:      * - `from` cannot be the zero address. - `to` cannot be the zero address. - `tokenId` token must exist and be owned by `from`. - If the caller is not `from`, it must be approved to move this token by either {approve} or {setApprovalForAll}. - If `to` refers to a smart contract, it must implement {IERC721Receiver-onERC721Received}, which is called upon a safe transfer.      * Emits a {Transfer} event.\"},\"setApprovalForAll(address,bool)\":{\"details\":\"Approve or remove `operator` as an operator for the caller. Operators can call {transferFrom} or {safeTransferFrom} for any token owned by the caller.     * Requirements:     * - The `operator` cannot be the caller.     * Emits an {ApprovalForAll} event.\"},\"supportsInterface(bytes4)\":{\"details\":\"Returns true if this contract implements the interface defined by `interfaceId`. See the corresponding https://eips.ethereum.org/EIPS/eip-165#how-interfaces-are-identified[EIP section] to learn more about how these ids are created.     * This function call must use less than 30 000 gas.\"},\"symbol()\":{\"details\":\"Returns the token collection symbol.\"},\"tokenURI(uint256)\":{\"details\":\"Returns the Uniform Resource Identifier (URI) for `tokenId` token.\"},\"transferFrom(address,address,uint256)\":{\"details\":\"Transfers `tokenId` token from `from` to `to`.     * WARNING: Usage of this method is discouraged, use {safeTransferFrom} whenever possible.     * Requirements:     * - `from` cannot be the zero address. - `to` cannot be the zero address. - `tokenId` token must be owned by `from`. - If the caller is not `from`, it must be approved to move this token by either {approve} or {setApprovalForAll}.     * Emits a {Transfer} event.\"}},\"title\":\"ERC-721 Non-Fungible Token Standard, optional metadata extension\"},\"userdoc\":{\"methods\":{}}},\"settings\":{\"compilationTarget\":{\"@openzeppelin/contracts/token/ERC721/IERC721Metadata.sol\":\"IERC721Metadata\"},\"evmVersion\":\"byzantium\",\"libraries\":{},\"metadata\":{\"bytecodeHash\":\"ipfs\"},\"optimizer\":{\"enabled\":false,\"runs\":200},\"remappings\":[]},\"sources\":{\"@openzeppelin/contracts/introspection/IERC165.sol\":{\"keccak256\":\"0xf70bc25d981e4ec9673a995ad2995d5d493ea188d3d8f388bba9c227ce09fb82\",\"urls\":[\"bzz-raw://bd970f51e3a77790c2f02b5b1759827c3b897c3d98c407b3631e8af32e3dc93c\",\"dweb:/ipfs/QmPF85Amgbqjk3SNZKsPCsqCw8JfwYEPMnnhvMJUyX58je\"]},\"@openzeppelin/contracts/token/ERC721/IERC721.sol\":{\"keccak256\":\"0x2d99a0deb6648c34fbc66d6ac4a2d64798d7a5321b45624f6736fadc63da1962\",\"urls\":[\"bzz-raw://2dcdce5ede1e5e650d174ec0b35be7d47b6a50f30bc895ef0d9e59fb75052e45\",\"dweb:/ipfs/QmQ2XFsDLTYqfEdw7pYzHiGtFRY11yQm4b6ynYgKqDxeB8\"]},\"@openzeppelin/contracts/token/ERC721/IERC721Metadata.sol\":{\"keccak256\":\"0xccb917776f826ac6b68bd5a15a5f711e3967848a52ba11e6104d9a4f593314a7\",\"urls\":[\"bzz-raw://430255ad2229ced6d880e61a67bdc6e48dbbaed8354a7c1fe918cd8b8714a886\",\"dweb:/ipfs/QmTHY56odzqEpEC6v6tafaWMYY7vmULw25q5XHJLCCAeox\"]}},\"version\":1}",
  "bytecode": "0x",
  "deployedBytecode": "0x",
  "immutableReferences": {},
  "sourceMap": "",
  "deployedSourceMap": "",
  "source": "// SPDX-License-Identifier: MIT\n\npragma solidity >=0.6.2 <0.8.0;\n\nimport \"./IERC721.sol\";\n\n/**\n * @title ERC-721 Non-Fungible Token Standard, optional metadata extension\n * @dev See https://eips.ethereum.org/EIPS/eip-721\n */\ninterface IERC721Metadata is IERC721 {\n\n    /**\n     * @dev Returns the token collection name.\n     */\n    function name() external view returns (string memory);\n\n    /**\n     * @dev Returns the token collection symbol.\n     */\n    function symbol() external view returns (string memory);\n\n    /**\n     * @dev Returns the Uniform Resource Identifier (URI) for `tokenId` token.\n     */\n    function tokenURI(uint256 tokenId) external view returns (string memory);\n}\n",
  "sourcePath": "@openzeppelin/contracts/token/ERC721/IERC721Metadata.sol",
  "ast": {
    "absolutePath": "@openzeppelin/contracts/token/ERC721/IERC721Metadata.sol",
    "exportedSymbols": {
      "IERC721Metadata": [
        1652
      ]
    },
    "id": 1653,
    "nodeType": "SourceUnit",
    "nodes": [
      {
        "id": 1627,
        "literals": [
          "solidity",
          ">=",
          "0.6",
          ".2",
          "<",
          "0.8",
          ".0"
        ],
        "nodeType": "PragmaDirective",
        "src": "33:31:8"
      },
      {
        "absolutePath": "@openzeppelin/contracts/token/ERC721/IERC721.sol",
        "file": "./IERC721.sol",
        "id": 1628,
        "nodeType": "ImportDirective",
        "scope": 1653,
        "sourceUnit": 1595,
        "src": "66:23:8",
        "symbolAliases": [],
        "unitAlias": ""
      },
      {
        "abstract": false,
        "baseContracts": [
          {
            "arguments": null,
            "baseName": {
              "contractScope": null,
              "id": 1630,
              "name": "IERC721",
              "nodeType": "UserDefinedTypeName",
              "referencedDeclaration": 1594,
              "src": "254:7:8",
              "typeDescriptions": {
                "typeIdentifier": "t_contract$_IERC721_$1594",
                "typeString": "contract IERC721"
              }
            },
            "id": 1631,
            "nodeType": "InheritanceSpecifier",
            "src": "254:7:8"
          }
        ],
        "contractDependencies": [
          179,
          1594
        ],
        "contractKind": "interface",
        "documentation": {
          "id": 1629,
          "nodeType": "StructuredDocumentation",
          "src": "91:133:8",
          "text": "@title ERC-721 Non-Fungible Token Standard, optional metadata extension\n@dev See https://eips.ethereum.org/EIPS/eip-721"
        },
        "fullyImplemented": false,
        "id": 1652,
        "linearizedBaseContracts": [
          1652,
          1594,
          179
        ],
        "name": "IERC721Metadata",
        "nodeType": "ContractDefinition",
        "nodes": [
          {
            "body": null,
            "documentation": {
              "id": 1632,
              "nodeType": "StructuredDocumentation",
              "src": "269:58:8",
              "text": "@dev Returns the token collection name."
            },
            "functionSelector": "06fdde03",
            "id": 1637,
            "implemented": false,
            "kind": "function",
            "modifiers": [],
            "name": "name",
            "nodeType": "FunctionDefinition",
            "overrides": null,
            "parameters": {
              "id": 1633,
              "nodeType": "ParameterList",
              "parameters": [],
              "src": "345:2:8"
            },
            "returnParameters": {
              "id": 1636,
              "nodeType": "ParameterList",
              "parameters": [
                {
                  "constant": false,
                  "id": 1635,
                  "mutability": "mutable",
                  "name": "",
                  "nodeType": "VariableDeclaration",
                  "overrides": null,
                  "scope": 1637,
                  "src": "371:13:8",
                  "stateVariable": false,
                  "storageLocation": "memory",
                  "typeDescriptions": {
                    "typeIdentifier": "t_string_memory_ptr",
                    "typeString": "string"
                  },
                  "typeName": {
                    "id": 1634,
                    "name": "string",
                    "nodeType": "ElementaryTypeName",
                    "src": "371:6:8",
                    "typeDescriptions": {
                      "typeIdentifier": "t_string_storage_ptr",
                      "typeString": "string"
                    }
                  },
                  "value": null,
                  "visibility": "internal"
                }
              ],
              "src": "370:15:8"
            },
            "scope": 1652,
            "src": "332:54:8",
            "stateMutability": "view",
            "virtual": false,
            "visibility": "external"
          },
          {
            "body": null,
            "documentation": {
              "id": 1638,
              "nodeType": "StructuredDocumentation",
              "src": "392:60:8",
              "text": "@dev Returns the token collection symbol."
            },
            "functionSelector": "95d89b41",
            "id": 1643,
            "implemented": false,
            "kind": "function",
            "modifiers": [],
            "name": "symbol",
            "nodeType": "FunctionDefinition",
            "overrides": null,
            "parameters": {
              "id": 1639,
              "nodeType": "ParameterList",
              "parameters": [],
              "src": "472:2:8"
            },
            "returnParameters": {
              "id": 1642,
              "nodeType": "ParameterList",
              "parameters": [
                {
                  "constant": false,
                  "id": 1641,
                  "mutability": "mutable",
                  "name": "",
                  "nodeType": "VariableDeclaration",
                  "overrides": null,
                  "scope": 1643,
                  "src": "498:13:8",
                  "stateVariable": false,
                  "storageLocation": "memory",
                  "typeDescriptions": {
                    "typeIdentifier": "t_string_memory_ptr",
                    "typeString": "string"
                  },
                  "typeName": {
                    "id": 1640,
                    "name": "string",
                    "nodeType": "ElementaryTypeName",
                    "src": "498:6:8",
                    "typeDescriptions": {
                      "typeIdentifier": "t_string_storage_ptr",
                      "typeString": "string"
                    }
                  },
                  "value": null,
                  "visibility": "internal"
                }
              ],
              "src": "497:15:8"
            },
            "scope": 1652,
            "src": "457:56:8",
            "stateMutability": "view",
            "virtual": false,
            "visibility": "external"
          },
          {
            "body": null,
            "documentation": {
              "id": 1644,
              "nodeType": "StructuredDocumentation",
              "src": "519:90:8",
              "text": "@dev Returns the Uniform Resource Identifier (URI) for `tokenId` token."
            },
            "functionSelector": "c87b56dd",
            "id": 1651,
            "implemented": false,
            "kind": "function",
            "modifiers": [],
            "name": "tokenURI",
            "nodeType": "FunctionDefinition",
            "overrides": null,
            "parameters": {
              "id": 1647,
              "nodeType": "ParameterList",
              "parameters": [
                {
                  "constant": false,
                  "id": 1646,
                  "mutability": "mutable",
                  "name": "tokenId",
                  "nodeType": "VariableDeclaration",
                  "overrides": null,
                  "scope": 1651,
                  "src": "632:15:8",
                  "stateVariable": false,
                  "storageLocation": "default",
                  "typeDescriptions": {
                    "typeIdentifier": "t_uint256",
                    "typeString": "uint256"
                  },
                  "typeName": {
                    "id": 1645,
                    "name": "uint256",
                    "nodeType": "ElementaryTypeName",
                    "src": "632:7:8",
                    "typeDescriptions": {
                      "typeIdentifier": "t_uint256",
                      "typeString": "uint256"
                    }
                  },
                  "value": null,
                  "visibility": "internal"
                }
              ],
              "src": "631:17:8"
            },
            "returnParameters": {
              "id": 1650,
              "nodeType": "ParameterList",
              "parameters": [
                {
                  "constant": false,
                  "id": 1649,
                  "mutability": "mutable",
                  "name": "",
                  "nodeType": "VariableDeclaration",
                  "overrides": null,
                  "scope": 1651,
                  "src": "672:13:8",
                  "stateVariable": false,
                  "storageLocation": "memory",
                  "typeDescriptions": {
                    "typeIdentifier": "t_string_memory_ptr",
                    "typeString": "string"
                  },
                  "typeName": {
                    "id": 1648,
                    "name": "string",
                    "nodeType": "ElementaryTypeName",
                    "src": "672:6:8",
                    "typeDescriptions": {
                      "typeIdentifier": "t_string_storage_ptr",
                      "typeString": "string"
                    }
                  },
                  "value": null,
                  "visibility": "internal"
                }
              ],
              "src": "671:15:8"
            },
            "scope": 1652,
            "src": "614:73:8",
            "stateMutability": "view",
            "virtual": false,
            "visibility": "external"
          }
        ],
        "scope": 1653,
        "src": "225:464:8"
      }
    ],
    "src": "33:657:8"
  },
  "legacyAST": {
    "attributes": {
      "absolutePath": "@openzeppelin/contracts/token/ERC721/IERC721Metadata.sol",
      "exportedSymbols": {
        "IERC721Metadata": [
          1652
        ]
      }
    },
    "children": [
      {
        "attributes": {
          "literals": [
            "solidity",
            ">=",
            "0.6",
            ".2",
            "<",
            "0.8",
            ".0"
          ]
        },
        "id": 1627,
        "name": "PragmaDirective",
        "src": "33:31:8"
      },
      {
        "attributes": {
          "SourceUnit": 1595,
          "absolutePath": "@openzeppelin/contracts/token/ERC721/IERC721.sol",
          "file": "./IERC721.sol",
          "scope": 1653,
          "symbolAliases": [
            null
          ],
          "unitAlias": ""
        },
        "id": 1628,
        "name": "ImportDirective",
        "src": "66:23:8"
      },
      {
        "attributes": {
          "abstract": false,
          "contractDependencies": [
            179,
            1594
          ],
          "contractKind": "interface",
          "fullyImplemented": false,
          "linearizedBaseContracts": [
            1652,
            1594,
            179
          ],
          "name": "IERC721Metadata",
          "scope": 1653
        },
        "children": [
          {
            "attributes": {
              "text": "@title ERC-721 Non-Fungible Token Standard, optional metadata extension\n@dev See https://eips.ethereum.org/EIPS/eip-721"
            },
            "id": 1629,
            "name": "StructuredDocumentation",
            "src": "91:133:8"
          },
          {
            "attributes": {
              "arguments": null
            },
            "children": [
              {
                "attributes": {
                  "contractScope": null,
                  "name": "IERC721",
                  "referencedDeclaration": 1594,
                  "type": "contract IERC721"
                },
                "id": 1630,
                "name": "UserDefinedTypeName",
                "src": "254:7:8"
              }
            ],
            "id": 1631,
            "name": "InheritanceSpecifier",
            "src": "254:7:8"
          },
          {
            "attributes": {
              "body": null,
              "functionSelector": "06fdde03",
              "implemented": false,
              "isConstructor": false,
              "kind": "function",
              "modifiers": [
                null
              ],
              "name": "name",
              "overrides": null,
              "scope": 1652,
              "stateMutability": "view",
              "virtual": false,
              "visibility": "external"
            },
            "children": [
              {
                "attributes": {
                  "text": "@dev Returns the token collection name."
                },
                "id": 1632,
                "name": "StructuredDocumentation",
                "src": "269:58:8"
              },
              {
                "attributes": {
                  "parameters": [
                    null
                  ]
                },
                "children": [],
                "id": 1633,
                "name": "ParameterList",
                "src": "345:2:8"
              },
              {
                "children": [
                  {
                    "attributes": {
                      "constant": false,
                      "mutability": "mutable",
                      "name": "",
                      "overrides": null,
                      "scope": 1637,
                      "stateVariable": false,
                      "storageLocation": "memory",
                      "type": "string",
                      "value": null,
                      "visibility": "internal"
                    },
                    "children": [
                      {
                        "attributes": {
                          "name": "string",
                          "type": "string"
                        },
                        "id": 1634,
                        "name": "ElementaryTypeName",
                        "src": "371:6:8"
                      }
                    ],
                    "id": 1635,
                    "name": "VariableDeclaration",
                    "src": "371:13:8"
                  }
                ],
                "id": 1636,
                "name": "ParameterList",
                "src": "370:15:8"
              }
            ],
            "id": 1637,
            "name": "FunctionDefinition",
            "src": "332:54:8"
          },
          {
            "attributes": {
              "body": null,
              "functionSelector": "95d89b41",
              "implemented": false,
              "isConstructor": false,
              "kind": "function",
              "modifiers": [
                null
              ],
              "name": "symbol",
              "overrides": null,
              "scope": 1652,
              "stateMutability": "view",
              "virtual": false,
              "visibility": "external"
            },
            "children": [
              {
                "attributes": {
                  "text": "@dev Returns the token collection symbol."
                },
                "id": 1638,
                "name": "StructuredDocumentation",
                "src": "392:60:8"
              },
              {
                "attributes": {
                  "parameters": [
                    null
                  ]
                },
                "children": [],
                "id": 1639,
                "name": "ParameterList",
                "src": "472:2:8"
              },
              {
                "children": [
                  {
                    "attributes": {
                      "constant": false,
                      "mutability": "mutable",
                      "name": "",
                      "overrides": null,
                      "scope": 1643,
                      "stateVariable": false,
                      "storageLocation": "memory",
                      "type": "string",
                      "value": null,
                      "visibility": "internal"
                    },
                    "children": [
                      {
                        "attributes": {
                          "name": "string",
                          "type": "string"
                        },
                        "id": 1640,
                        "name": "ElementaryTypeName",
                        "src": "498:6:8"
                      }
                    ],
                    "id": 1641,
                    "name": "VariableDeclaration",
                    "src": "498:13:8"
                  }
                ],
                "id": 1642,
                "name": "ParameterList",
                "src": "497:15:8"
              }
            ],
            "id": 1643,
            "name": "FunctionDefinition",
            "src": "457:56:8"
          },
          {
            "attributes": {
              "body": null,
              "functionSelector": "c87b56dd",
              "implemented": false,
              "isConstructor": false,
              "kind": "function",
              "modifiers": [
                null
              ],
              "name": "tokenURI",
              "overrides": null,
              "scope": 1652,
              "stateMutability": "view",
              "virtual": false,
              "visibility": "external"
            },
            "children": [
              {
                "attributes": {
                  "text": "@dev Returns the Uniform Resource Identifier (URI) for `tokenId` token."
                },
                "id": 1644,
                "name": "StructuredDocumentation",
                "src": "519:90:8"
              },
              {
                "children": [
                  {
                    "attributes": {
                      "constant": false,
                      "mutability": "mutable",
                      "name": "tokenId",
                      "overrides": null,
                      "scope": 1651,
                      "stateVariable": false,
                      "storageLocation": "default",
                      "type": "uint256",
                      "value": null,
                      "visibility": "internal"
                    },
                    "children": [
                      {
                        "attributes": {
                          "name": "uint256",
                          "type": "uint256"
                        },
                        "id": 1645,
                        "name": "ElementaryTypeName",
                        "src": "632:7:8"
                      }
                    ],
                    "id": 1646,
                    "name": "VariableDeclaration",
                    "src": "632:15:8"
                  }
                ],
                "id": 1647,
                "name": "ParameterList",
                "src": "631:17:8"
              },
              {
                "children": [
                  {
                    "attributes": {
                      "constant": false,
                      "mutability": "mutable",
                      "name": "",
                      "overrides": null,
                      "scope": 1651,
                      "stateVariable": false,
                      "storageLocation": "memory",
                      "type": "string",
                      "value": null,
                      "visibility": "internal"
                    },
                    "children": [
                      {
                        "attributes": {
                          "name": "string",
                          "type": "string"
                        },
                        "id": 1648,
                        "name": "ElementaryTypeName",
                        "src": "672:6:8"
                      }
                    ],
                    "id": 1649,
                    "name": "VariableDeclaration",
                    "src": "672:13:8"
                  }
                ],
                "id": 1650,
                "name": "ParameterList",
                "src": "671:15:8"
              }
            ],
            "id": 1651,
            "name": "FunctionDefinition",
            "src": "614:73:8"
          }
        ],
        "id": 1652,
        "name": "ContractDefinition",
        "src": "225:464:8"
      }
    ],
    "id": 1653,
    "name": "SourceUnit",
    "src": "33:657:8"
  },
  "compiler": {
    "name": "solc",
    "version": "0.6.6+commit.6c089d02.Linux.g++"
  },
  "networks": {},
  "schemaVersion": "3.3.4",
  "updatedAt": "2021-03-14T23:14:36.450Z",
  "devdoc": {
    "details": "See https://eips.ethereum.org/EIPS/eip-721",
    "methods": {
      "approve(address,uint256)": {
        "details": "Gives permission to `to` to transfer `tokenId` token to another account. The approval is cleared when the token is transferred.     * Only a single account can be approved at a time, so approving the zero address clears previous approvals.     * Requirements:     * - The caller must own the token or be an approved operator. - `tokenId` must exist.     * Emits an {Approval} event."
      },
      "balanceOf(address)": {
        "details": "Returns the number of tokens in ``owner``'s account."
      },
      "getApproved(uint256)": {
        "details": "Returns the account approved for `tokenId` token.     * Requirements:     * - `tokenId` must exist."
      },
      "isApprovedForAll(address,address)": {
        "details": "Returns if the `operator` is allowed to manage all of the assets of `owner`.     * See {setApprovalForAll}"
      },
      "name()": {
        "details": "Returns the token collection name."
      },
      "ownerOf(uint256)": {
        "details": "Returns the owner of the `tokenId` token.     * Requirements:     * - `tokenId` must exist."
      },
      "safeTransferFrom(address,address,uint256)": {
        "details": "Safely transfers `tokenId` token from `from` to `to`, checking first that contract recipients are aware of the ERC721 protocol to prevent tokens from being forever locked.     * Requirements:     * - `from` cannot be the zero address. - `to` cannot be the zero address. - `tokenId` token must exist and be owned by `from`. - If the caller is not `from`, it must be have been allowed to move this token by either {approve} or {setApprovalForAll}. - If `to` refers to a smart contract, it must implement {IERC721Receiver-onERC721Received}, which is called upon a safe transfer.     * Emits a {Transfer} event."
      },
      "safeTransferFrom(address,address,uint256,bytes)": {
        "details": "Safely transfers `tokenId` token from `from` to `to`.      * Requirements:      * - `from` cannot be the zero address. - `to` cannot be the zero address. - `tokenId` token must exist and be owned by `from`. - If the caller is not `from`, it must be approved to move this token by either {approve} or {setApprovalForAll}. - If `to` refers to a smart contract, it must implement {IERC721Receiver-onERC721Received}, which is called upon a safe transfer.      * Emits a {Transfer} event."
      },
      "setApprovalForAll(address,bool)": {
        "details": "Approve or remove `operator` as an operator for the caller. Operators can call {transferFrom} or {safeTransferFrom} for any token owned by the caller.     * Requirements:     * - The `operator` cannot be the caller.     * Emits an {ApprovalForAll} event."
      },
      "supportsInterface(bytes4)": {
        "details": "Returns true if this contract implements the interface defined by `interfaceId`. See the corresponding https://eips.ethereum.org/EIPS/eip-165#how-interfaces-are-identified[EIP section] to learn more about how these ids are created.     * This function call must use less than 30 000 gas."
      },
      "symbol()": {
        "details": "Returns the token collection symbol."
      },
      "tokenURI(uint256)": {
        "details": "Returns the Uniform Resource Identifier (URI) for `tokenId` token."
      },
      "transferFrom(address,address,uint256)": {
        "details": "Transfers `tokenId` token from `from` to `to`.     * WARNING: Usage of this method is discouraged, use {safeTransferFrom} whenever possible.     * Requirements:     * - `from` cannot be the zero address. - `to` cannot be the zero address. - `tokenId` token must be owned by `from`. - If the caller is not `from`, it must be approved to move this token by either {approve} or {setApprovalForAll}.     * Emits a {Transfer} event."
      }
    },
    "title": "ERC-721 Non-Fungible Token Standard, optional metadata extension"
  },
  "userdoc": {
    "methods": {}
  }
}