{
  "contractName": "IERC721Enumerable",
  "abi": [
    {
      "anonymous": false,
      "inputs": [
        {
          "indexed": true,
          "internalType": "address",
          "name": "owner",
          "type": "address"
        },
        {
          "indexed": true,
          "internalType": "address",
          "name": "approved",
          "type": "address"
        },
        {
          "indexed": true,
          "internalType": "uint256",
          "name": "tokenId",
          "type": "uint256"
        }
      ],
      "name": "Approval",
      "type": "event"
    },
    {
      "anonymous": false,
      "inputs": [
        {
          "indexed": true,
          "internalType": "address",
          "name": "owner",
          "type": "address"
        },
        {
          "indexed": true,
          "internalType": "address",
          "name": "operator",
          "type": "address"
        },
        {
          "indexed": false,
          "internalType": "bool",
          "name": "approved",
          "type": "bool"
        }
      ],
      "name": "ApprovalForAll",
      "type": "event"
    },
    {
      "anonymous": false,
      "inputs": [
        {
          "indexed": true,
          "internalType": "address",
          "name": "from",
          "type": "address"
        },
        {
          "indexed": true,
          "internalType": "address",
          "name": "to",
          "type": "address"
        },
        {
          "indexed": true,
          "internalType": "uint256",
          "name": "tokenId",
          "type": "uint256"
        }
      ],
      "name": "Transfer",
      "type": "event"
    },
    {
      "inputs": [
        {
          "internalType": "address",
          "name": "to",
          "type": "address"
        },
        {
          "internalType": "uint256",
          "name": "tokenId",
          "type": "uint256"
        }
      ],
      "name": "approve",
      "outputs": [],
      "stateMutability": "nonpayable",
      "type": "function"
    },
    {
      "inputs": [
        {
          "internalType": "address",
          "name": "owner",
          "type": "address"
        }
      ],
      "name": "balanceOf",
      "outputs": [
        {
          "internalType": "uint256",
          "name": "balance",
          "type": "uint256"
        }
      ],
      "stateMutability": "view",
      "type": "function"
    },
    {
      "inputs": [
        {
          "internalType": "uint256",
          "name": "tokenId",
          "type": "uint256"
        }
      ],
      "name": "getApproved",
      "outputs": [
        {
          "internalType": "address",
          "name": "operator",
          "type": "address"
        }
      ],
      "stateMutability": "view",
      "type": "function"
    },
    {
      "inputs": [
        {
          "internalType": "address",
          "name": "owner",
          "type": "address"
        },
        {
          "internalType": "address",
          "name": "operator",
          "type": "address"
        }
      ],
      "name": "isApprovedForAll",
      "outputs": [
        {
          "internalType": "bool",
          "name": "",
          "type": "bool"
        }
      ],
      "stateMutability": "view",
      "type": "function"
    },
    {
      "inputs": [
        {
          "internalType": "uint256",
          "name": "tokenId",
          "type": "uint256"
        }
      ],
      "name": "ownerOf",
      "outputs": [
        {
          "internalType": "address",
          "name": "owner",
          "type": "address"
        }
      ],
      "stateMutability": "view",
      "type": "function"
    },
    {
      "inputs": [
        {
          "internalType": "address",
          "name": "from",
          "type": "address"
        },
        {
          "internalType": "address",
          "name": "to",
          "type": "address"
        },
        {
          "internalType": "uint256",
          "name": "tokenId",
          "type": "uint256"
        }
      ],
      "name": "safeTransferFrom",
      "outputs": [],
      "stateMutability": "nonpayable",
      "type": "function"
    },
    {
      "inputs": [
        {
          "internalType": "address",
          "name": "from",
          "type": "address"
        },
        {
          "internalType": "address",
          "name": "to",
          "type": "address"
        },
        {
          "internalType": "uint256",
          "name": "tokenId",
          "type": "uint256"
        },
        {
          "internalType": "bytes",
          "name": "data",
          "type": "bytes"
        }
      ],
      "name": "safeTransferFrom",
      "outputs": [],
      "stateMutability": "nonpayable",
      "type": "function"
    },
    {
      "inputs": [
        {
          "internalType": "address",
          "name": "operator",
          "type": "address"
        },
        {
          "internalType": "bool",
          "name": "_approved",
          "type": "bool"
        }
      ],
      "name": "setApprovalForAll",
      "outputs": [],
      "stateMutability": "nonpayable",
      "type": "function"
    },
    {
      "inputs": [
        {
          "internalType": "bytes4",
          "name": "interfaceId",
          "type": "bytes4"
        }
      ],
      "name": "supportsInterface",
      "outputs": [
        {
          "internalType": "bool",
          "name": "",
          "type": "bool"
        }
      ],
      "stateMutability": "view",
      "type": "function"
    },
    {
      "inputs": [
        {
          "internalType": "address",
          "name": "from",
          "type": "address"
        },
        {
          "internalType": "address",
          "name": "to",
          "type": "address"
        },
        {
          "internalType": "uint256",
          "name": "tokenId",
          "type": "uint256"
        }
      ],
      "name": "transferFrom",
      "outputs": [],
      "stateMutability": "nonpayable",
      "type": "function"
    },
    {
      "inputs": [],
      "name": "totalSupply",
      "outputs": [
        {
          "internalType": "uint256",
          "name": "",
          "type": "uint256"
        }
      ],
      "stateMutability": "view",
      "type": "function"
    },
    {
      "inputs": [
        {
          "internalType": "address",
          "name": "owner",
          "type": "address"
        },
        {
          "internalType": "uint256",
          "name": "index",
          "type": "uint256"
        }
      ],
      "name": "tokenOfOwnerByIndex",
      "outputs": [
        {
          "internalType": "uint256",
          "name": "tokenId",
          "type": "uint256"
        }
      ],
      "stateMutability": "view",
      "type": "function"
    },
    {
      "inputs": [
        {
          "internalType": "uint256",
          "name": "index",
          "type": "uint256"
        }
      ],
      "name": "tokenByIndex",
      "outputs": [
        {
          "internalType": "uint256",
          "name": "",
          "type": "uint256"
        }
      ],
      "stateMutability": "view",
      "type": "function"
    }
  ],
  "metadata": "{\"compiler\":{\"version\":\"0.6.6+commit.6c089d02\"},\"language\":\"Solidity\",\"output\":{\"abi\":[{\"anonymous\":false,\"inputs\":[{\"indexed\":true,\"internalType\":\"address\",\"name\":\"owner\",\"type\":\"address\"},{\"indexed\":true,\"internalType\":\"address\",\"name\":\"approved\",\"type\":\"address\"},{\"indexed\":true,\"internalType\":\"uint256\",\"name\":\"tokenId\",\"type\":\"uint256\"}],\"name\":\"Approval\",\"type\":\"event\"},{\"anonymous\":false,\"inputs\":[{\"indexed\":true,\"internalType\":\"address\",\"name\":\"owner\",\"type\":\"address\"},{\"indexed\":true,\"internalType\":\"address\",\"name\":\"operator\",\"type\":\"address\"},{\"indexed\":false,\"internalType\":\"bool\",\"name\":\"approved\",\"type\":\"bool\"}],\"name\":\"ApprovalForAll\",\"type\":\"event\"},{\"anonymous\":false,\"inputs\":[{\"indexed\":true,\"internalType\":\"address\",\"name\":\"from\",\"type\":\"address\"},{\"indexed\":true,\"internalType\":\"address\",\"name\":\"to\",\"type\":\"address\"},{\"indexed\":true,\"internalType\":\"uint256\",\"name\":\"tokenId\",\"type\":\"uint256\"}],\"name\":\"Transfer\",\"type\":\"event\"},{\"inputs\":[{\"internalType\":\"address\",\"name\":\"to\",\"type\":\"address\"},{\"internalType\":\"uint256\",\"name\":\"tokenId\",\"type\":\"uint256\"}],\"name\":\"approve\",\"outputs\":[],\"stateMutability\":\"nonpayable\",\"type\":\"function\"},{\"inputs\":[{\"internalType\":\"address\",\"name\":\"owner\",\"type\":\"address\"}],\"name\":\"balanceOf\",\"outputs\":[{\"internalType\":\"uint256\",\"name\":\"balance\",\"type\":\"uint256\"}],\"stateMutability\":\"view\",\"type\":\"function\"},{\"inputs\":[{\"internalType\":\"uint256\",\"name\":\"tokenId\",\"type\":\"uint256\"}],\"name\":\"getApproved\",\"outputs\":[{\"internalType\":\"address\",\"name\":\"operator\",\"type\":\"address\"}],\"stateMutability\":\"view\",\"type\":\"function\"},{\"inputs\":[{\"internalType\":\"address\",\"name\":\"owner\",\"type\":\"address\"},{\"internalType\":\"address\",\"name\":\"operator\",\"type\":\"address\"}],\"name\":\"isApprovedForAll\",\"outputs\":[{\"internalType\":\"bool\",\"name\":\"\",\"type\":\"bool\"}],\"stateMutability\":\"view\",\"type\":\"function\"},{\"inputs\":[{\"internalType\":\"uint256\",\"name\":\"tokenId\",\"type\":\"uint256\"}],\"name\":\"ownerOf\",\"outputs\":[{\"internalType\":\"address\",\"name\":\"owner\",\"type\":\"address\"}],\"stateMutability\":\"view\",\"type\":\"function\"},{\"inputs\":[{\"internalType\":\"address\",\"name\":\"from\",\"type\":\"address\"},{\"internalType\":\"address\",\"name\":\"to\",\"type\":\"address\"},{\"internalType\":\"uint256\",\"name\":\"tokenId\",\"type\":\"uint256\"}],\"name\":\"safeTransferFrom\",\"outputs\":[],\"stateMutability\":\"nonpayable\",\"type\":\"function\"},{\"inputs\":[{\"internalType\":\"address\",\"name\":\"from\",\"type\":\"address\"},{\"internalType\":\"address\",\"name\":\"to\",\"type\":\"address\"},{\"internalType\":\"uint256\",\"name\":\"tokenId\",\"type\":\"uint256\"},{\"internalType\":\"bytes\",\"name\":\"data\",\"type\":\"bytes\"}],\"name\":\"safeTransferFrom\",\"outputs\":[],\"stateMutability\":\"nonpayable\",\"type\":\"function\"},{\"inputs\":[{\"internalType\":\"address\",\"name\":\"operator\",\"type\":\"address\"},{\"internalType\":\"bool\",\"name\":\"_approved\",\"type\":\"bool\"}],\"name\":\"setApprovalForAll\",\"outputs\":[],\"stateMutability\":\"nonpayable\",\"type\":\"function\"},{\"inputs\":[{\"internalType\":\"bytes4\",\"name\":\"interfaceId\",\"type\":\"bytes4\"}],\"name\":\"supportsInterface\",\"outputs\":[{\"internalType\":\"bool\",\"name\":\"\",\"type\":\"bool\"}],\"stateMutability\":\"view\",\"type\":\"function\"},{\"inputs\":[{\"internalType\":\"uint256\",\"name\":\"index\",\"type\":\"uint256\"}],\"name\":\"tokenByIndex\",\"outputs\":[{\"internalType\":\"uint256\",\"name\":\"\",\"type\":\"uint256\"}],\"stateMutability\":\"view\",\"type\":\"function\"},{\"inputs\":[{\"internalType\":\"address\",\"name\":\"owner\",\"type\":\"address\"},{\"internalType\":\"uint256\",\"name\":\"index\",\"type\":\"uint256\"}],\"name\":\"tokenOfOwnerByIndex\",\"outputs\":[{\"internalType\":\"uint256\",\"name\":\"tokenId\",\"type\":\"uint256\"}],\"stateMutability\":\"view\",\"type\":\"function\"},{\"inputs\":[],\"name\":\"totalSupply\",\"outputs\":[{\"internalType\":\"uint256\",\"name\":\"\",\"type\":\"uint256\"}],\"stateMutability\":\"view\",\"type\":\"function\"},{\"inputs\":[{\"internalType\":\"address\",\"name\":\"from\",\"type\":\"address\"},{\"internalType\":\"address\",\"name\":\"to\",\"type\":\"address\"},{\"internalType\":\"uint256\",\"name\":\"tokenId\",\"type\":\"uint256\"}],\"name\":\"transferFrom\",\"outputs\":[],\"stateMutability\":\"nonpayable\",\"type\":\"function\"}],\"devdoc\":{\"details\":\"See https://eips.ethereum.org/EIPS/eip-721\",\"methods\":{\"approve(address,uint256)\":{\"details\":\"Gives permission to `to` to transfer `tokenId` token to another account. The approval is cleared when the token is transferred.     * Only a single account can be approved at a time, so approving the zero address clears previous approvals.     * Requirements:     * - The caller must own the token or be an approved operator. - `tokenId` must exist.     * Emits an {Approval} event.\"},\"balanceOf(address)\":{\"details\":\"Returns the number of tokens in ``owner``'s account.\"},\"getApproved(uint256)\":{\"details\":\"Returns the account approved for `tokenId` token.     * Requirements:     * - `tokenId` must exist.\"},\"isApprovedForAll(address,address)\":{\"details\":\"Returns if the `operator` is allowed to manage all of the assets of `owner`.     * See {setApprovalForAll}\"},\"ownerOf(uint256)\":{\"details\":\"Returns the owner of the `tokenId` token.     * Requirements:     * - `tokenId` must exist.\"},\"safeTransferFrom(address,address,uint256)\":{\"details\":\"Safely transfers `tokenId` token from `from` to `to`, checking first that contract recipients are aware of the ERC721 protocol to prevent tokens from being forever locked.     * Requirements:     * - `from` cannot be the zero address. - `to` cannot be the zero address. - `tokenId` token must exist and be owned by `from`. - If the caller is not `from`, it must be have been allowed to move this token by either {approve} or {setApprovalForAll}. - If `to` refers to a smart contract, it must implement {IERC721Receiver-onERC721Received}, which is called upon a safe transfer.     * Emits a {Transfer} event.\"},\"safeTransferFrom(address,address,uint256,bytes)\":{\"details\":\"Safely transfers `tokenId` token from `from` to `to`.      * Requirements:      * - `from` cannot be the zero address. - `to` cannot be the zero address. - `tokenId` token must exist and be owned by `from`. - If the caller is not `from`, it must be approved to move this token by either {approve} or {setApprovalForAll}. - If `to` refers to a smart contract, it must implement {IERC721Receiver-onERC721Received}, which is called upon a safe transfer.      * Emits a {Transfer} event.\"},\"setApprovalForAll(address,bool)\":{\"details\":\"Approve or remove `operator` as an operator for the caller. Operators can call {transferFrom} or {safeTransferFrom} for any token owned by the caller.     * Requirements:     * - The `operator` cannot be the caller.     * Emits an {ApprovalForAll} event.\"},\"supportsInterface(bytes4)\":{\"details\":\"Returns true if this contract implements the interface defined by `interfaceId`. See the corresponding https://eips.ethereum.org/EIPS/eip-165#how-interfaces-are-identified[EIP section] to learn more about how these ids are created.     * This function call must use less than 30 000 gas.\"},\"tokenByIndex(uint256)\":{\"details\":\"Returns a token ID at a given `index` of all the tokens stored by the contract. Use along with {totalSupply} to enumerate all tokens.\"},\"tokenOfOwnerByIndex(address,uint256)\":{\"details\":\"Returns a token ID owned by `owner` at a given `index` of its token list. Use along with {balanceOf} to enumerate all of ``owner``'s tokens.\"},\"totalSupply()\":{\"details\":\"Returns the total amount of tokens stored by the contract.\"},\"transferFrom(address,address,uint256)\":{\"details\":\"Transfers `tokenId` token from `from` to `to`.     * WARNING: Usage of this method is discouraged, use {safeTransferFrom} whenever possible.     * Requirements:     * - `from` cannot be the zero address. - `to` cannot be the zero address. - `tokenId` token must be owned by `from`. - If the caller is not `from`, it must be approved to move this token by either {approve} or {setApprovalForAll}.     * Emits a {Transfer} event.\"}},\"title\":\"ERC-721 Non-Fungible Token Standard, optional enumeration extension\"},\"userdoc\":{\"methods\":{}}},\"settings\":{\"compilationTarget\":{\"@openzeppelin/contracts/token/ERC721/IERC721Enumerable.sol\":\"IERC721Enumerable\"},\"evmVersion\":\"byzantium\",\"libraries\":{},\"metadata\":{\"bytecodeHash\":\"ipfs\"},\"optimizer\":{\"enabled\":false,\"runs\":200},\"remappings\":[]},\"sources\":{\"@openzeppelin/contracts/introspection/IERC165.sol\":{\"keccak256\":\"0xf70bc25d981e4ec9673a995ad2995d5d493ea188d3d8f388bba9c227ce09fb82\",\"urls\":[\"bzz-raw://bd970f51e3a77790c2f02b5b1759827c3b897c3d98c407b3631e8af32e3dc93c\",\"dweb:/ipfs/QmPF85Amgbqjk3SNZKsPCsqCw8JfwYEPMnnhvMJUyX58je\"]},\"@openzeppelin/contracts/token/ERC721/IERC721.sol\":{\"keccak256\":\"0x2d99a0deb6648c34fbc66d6ac4a2d64798d7a5321b45624f6736fadc63da1962\",\"urls\":[\"bzz-raw://2dcdce5ede1e5e650d174ec0b35be7d47b6a50f30bc895ef0d9e59fb75052e45\",\"dweb:/ipfs/QmQ2XFsDLTYqfEdw7pYzHiGtFRY11yQm4b6ynYgKqDxeB8\"]},\"@openzeppelin/contracts/token/ERC721/IERC721Enumerable.sol\":{\"keccak256\":\"0xe6bd1b1218338b6f9fe17776f48623b4ac3d8a40405f74a44bc23c00abe2ca13\",\"urls\":[\"bzz-raw://0c354c3f6e9c487759aa7869be4fba68e0b2efc777b514d289c4cbd3ff8f7e1a\",\"dweb:/ipfs/QmdF9LcSYVmiUCL7JxLEYmSLrjga6zJsujfi6sgEJD4M1z\"]}},\"version\":1}",
  "bytecode": "0x",
  "deployedBytecode": "0x",
  "immutableReferences": {},
  "sourceMap": "",
  "deployedSourceMap": "",
  "source": "// SPDX-License-Identifier: MIT\n\npragma solidity >=0.6.2 <0.8.0;\n\nimport \"./IERC721.sol\";\n\n/**\n * @title ERC-721 Non-Fungible Token Standard, optional enumeration extension\n * @dev See https://eips.ethereum.org/EIPS/eip-721\n */\ninterface IERC721Enumerable is IERC721 {\n\n    /**\n     * @dev Returns the total amount of tokens stored by the contract.\n     */\n    function totalSupply() external view returns (uint256);\n\n    /**\n     * @dev Returns a token ID owned by `owner` at a given `index` of its token list.\n     * Use along with {balanceOf} to enumerate all of ``owner``'s tokens.\n     */\n    function tokenOfOwnerByIndex(address owner, uint256 index) external view returns (uint256 tokenId);\n\n    /**\n     * @dev Returns a token ID at a given `index` of all the tokens stored by the contract.\n     * Use along with {totalSupply} to enumerate all tokens.\n     */\n    function tokenByIndex(uint256 index) external view returns (uint256);\n}\n",
  "sourcePath": "@openzeppelin/contracts/token/ERC721/IERC721Enumerable.sol",
  "ast": {
    "absolutePath": "@openzeppelin/contracts/token/ERC721/IERC721Enumerable.sol",
    "exportedSymbols": {
      "IERC721Enumerable": [
        1625
      ]
    },
    "id": 1626,
    "nodeType": "SourceUnit",
    "nodes": [
      {
        "id": 1596,
        "literals": [
          "solidity",
          ">=",
          "0.6",
          ".2",
          "<",
          "0.8",
          ".0"
        ],
        "nodeType": "PragmaDirective",
        "src": "33:31:7"
      },
      {
        "absolutePath": "@openzeppelin/contracts/token/ERC721/IERC721.sol",
        "file": "./IERC721.sol",
        "id": 1597,
        "nodeType": "ImportDirective",
        "scope": 1626,
        "sourceUnit": 1595,
        "src": "66:23:7",
        "symbolAliases": [],
        "unitAlias": ""
      },
      {
        "abstract": false,
        "baseContracts": [
          {
            "arguments": null,
            "baseName": {
              "contractScope": null,
              "id": 1599,
              "name": "IERC721",
              "nodeType": "UserDefinedTypeName",
              "referencedDeclaration": 1594,
              "src": "259:7:7",
              "typeDescriptions": {
                "typeIdentifier": "t_contract$_IERC721_$1594",
                "typeString": "contract IERC721"
              }
            },
            "id": 1600,
            "nodeType": "InheritanceSpecifier",
            "src": "259:7:7"
          }
        ],
        "contractDependencies": [
          179,
          1594
        ],
        "contractKind": "interface",
        "documentation": {
          "id": 1598,
          "nodeType": "StructuredDocumentation",
          "src": "91:136:7",
          "text": "@title ERC-721 Non-Fungible Token Standard, optional enumeration extension\n@dev See https://eips.ethereum.org/EIPS/eip-721"
        },
        "fullyImplemented": false,
        "id": 1625,
        "linearizedBaseContracts": [
          1625,
          1594,
          179
        ],
        "name": "IERC721Enumerable",
        "nodeType": "ContractDefinition",
        "nodes": [
          {
            "body": null,
            "documentation": {
              "id": 1601,
              "nodeType": "StructuredDocumentation",
              "src": "274:82:7",
              "text": "@dev Returns the total amount of tokens stored by the contract."
            },
            "functionSelector": "18160ddd",
            "id": 1606,
            "implemented": false,
            "kind": "function",
            "modifiers": [],
            "name": "totalSupply",
            "nodeType": "FunctionDefinition",
            "overrides": null,
            "parameters": {
              "id": 1602,
              "nodeType": "ParameterList",
              "parameters": [],
              "src": "381:2:7"
            },
            "returnParameters": {
              "id": 1605,
              "nodeType": "ParameterList",
              "parameters": [
                {
                  "constant": false,
                  "id": 1604,
                  "mutability": "mutable",
                  "name": "",
                  "nodeType": "VariableDeclaration",
                  "overrides": null,
                  "scope": 1606,
                  "src": "407:7:7",
                  "stateVariable": false,
                  "storageLocation": "default",
                  "typeDescriptions": {
                    "typeIdentifier": "t_uint256",
                    "typeString": "uint256"
                  },
                  "typeName": {
                    "id": 1603,
                    "name": "uint256",
                    "nodeType": "ElementaryTypeName",
                    "src": "407:7:7",
                    "typeDescriptions": {
                      "typeIdentifier": "t_uint256",
                      "typeString": "uint256"
                    }
                  },
                  "value": null,
                  "visibility": "internal"
                }
              ],
              "src": "406:9:7"
            },
            "scope": 1625,
            "src": "361:55:7",
            "stateMutability": "view",
            "virtual": false,
            "visibility": "external"
          },
          {
            "body": null,
            "documentation": {
              "id": 1607,
              "nodeType": "StructuredDocumentation",
              "src": "422:171:7",
              "text": "@dev Returns a token ID owned by `owner` at a given `index` of its token list.\nUse along with {balanceOf} to enumerate all of ``owner``'s tokens."
            },
            "functionSelector": "2f745c59",
            "id": 1616,
            "implemented": false,
            "kind": "function",
            "modifiers": [],
            "name": "tokenOfOwnerByIndex",
            "nodeType": "FunctionDefinition",
            "overrides": null,
            "parameters": {
              "id": 1612,
              "nodeType": "ParameterList",
              "parameters": [
                {
                  "constant": false,
                  "id": 1609,
                  "mutability": "mutable",
                  "name": "owner",
                  "nodeType": "VariableDeclaration",
                  "overrides": null,
                  "scope": 1616,
                  "src": "627:13:7",
                  "stateVariable": false,
                  "storageLocation": "default",
                  "typeDescriptions": {
                    "typeIdentifier": "t_address",
                    "typeString": "address"
                  },
                  "typeName": {
                    "id": 1608,
                    "name": "address",
                    "nodeType": "ElementaryTypeName",
                    "src": "627:7:7",
                    "stateMutability": "nonpayable",
                    "typeDescriptions": {
                      "typeIdentifier": "t_address",
                      "typeString": "address"
                    }
                  },
                  "value": null,
                  "visibility": "internal"
                },
                {
                  "constant": false,
                  "id": 1611,
                  "mutability": "mutable",
                  "name": "index",
                  "nodeType": "VariableDeclaration",
                  "overrides": null,
                  "scope": 1616,
                  "src": "642:13:7",
                  "stateVariable": false,
                  "storageLocation": "default",
                  "typeDescriptions": {
                    "typeIdentifier": "t_uint256",
                    "typeString": "uint256"
                  },
                  "typeName": {
                    "id": 1610,
                    "name": "uint256",
                    "nodeType": "ElementaryTypeName",
                    "src": "642:7:7",
                    "typeDescriptions": {
                      "typeIdentifier": "t_uint256",
                      "typeString": "uint256"
                    }
                  },
                  "value": null,
                  "visibility": "internal"
                }
              ],
              "src": "626:30:7"
            },
            "returnParameters": {
              "id": 1615,
              "nodeType": "ParameterList",
              "parameters": [
                {
                  "constant": false,
                  "id": 1614,
                  "mutability": "mutable",
                  "name": "tokenId",
                  "nodeType": "VariableDeclaration",
                  "overrides": null,
                  "scope": 1616,
                  "src": "680:15:7",
                  "stateVariable": false,
                  "storageLocation": "default",
                  "typeDescriptions": {
                    "typeIdentifier": "t_uint256",
                    "typeString": "uint256"
                  },
                  "typeName": {
                    "id": 1613,
                    "name": "uint256",
                    "nodeType": "ElementaryTypeName",
                    "src": "680:7:7",
                    "typeDescriptions": {
                      "typeIdentifier": "t_uint256",
                      "typeString": "uint256"
                    }
                  },
                  "value": null,
                  "visibility": "internal"
                }
              ],
              "src": "679:17:7"
            },
            "scope": 1625,
            "src": "598:99:7",
            "stateMutability": "view",
            "virtual": false,
            "visibility": "external"
          },
          {
            "body": null,
            "documentation": {
              "id": 1617,
              "nodeType": "StructuredDocumentation",
              "src": "703:164:7",
              "text": "@dev Returns a token ID at a given `index` of all the tokens stored by the contract.\nUse along with {totalSupply} to enumerate all tokens."
            },
            "functionSelector": "4f6ccce7",
            "id": 1624,
            "implemented": false,
            "kind": "function",
            "modifiers": [],
            "name": "tokenByIndex",
            "nodeType": "FunctionDefinition",
            "overrides": null,
            "parameters": {
              "id": 1620,
              "nodeType": "ParameterList",
              "parameters": [
                {
                  "constant": false,
                  "id": 1619,
                  "mutability": "mutable",
                  "name": "index",
                  "nodeType": "VariableDeclaration",
                  "overrides": null,
                  "scope": 1624,
                  "src": "894:13:7",
                  "stateVariable": false,
                  "storageLocation": "default",
                  "typeDescriptions": {
                    "typeIdentifier": "t_uint256",
                    "typeString": "uint256"
                  },
                  "typeName": {
                    "id": 1618,
                    "name": "uint256",
                    "nodeType": "ElementaryTypeName",
                    "src": "894:7:7",
                    "typeDescriptions": {
                      "typeIdentifier": "t_uint256",
                      "typeString": "uint256"
                    }
                  },
                  "value": null,
                  "visibility": "internal"
                }
              ],
              "src": "893:15:7"
            },
            "returnParameters": {
              "id": 1623,
              "nodeType": "ParameterList",
              "parameters": [
                {
                  "constant": false,
                  "id": 1622,
                  "mutability": "mutable",
                  "name": "",
                  "nodeType": "VariableDeclaration",
                  "overrides": null,
                  "scope": 1624,
                  "src": "932:7:7",
                  "stateVariable": false,
                  "storageLocation": "default",
                  "typeDescriptions": {
                    "typeIdentifier": "t_uint256",
                    "typeString": "uint256"
                  },
                  "typeName": {
                    "id": 1621,
                    "name": "uint256",
                    "nodeType": "ElementaryTypeName",
                    "src": "932:7:7",
                    "typeDescriptions": {
                      "typeIdentifier": "t_uint256",
                      "typeString": "uint256"
                    }
                  },
                  "value": null,
                  "visibility": "internal"
                }
              ],
              "src": "931:9:7"
            },
            "scope": 1625,
            "src": "872:69:7",
            "stateMutability": "view",
            "virtual": false,
            "visibility": "external"
          }
        ],
        "scope": 1626,
        "src": "228:715:7"
      }
    ],
    "src": "33:911:7"
  },
  "legacyAST": {
    "attributes": {
      "absolutePath": "@openzeppelin/contracts/token/ERC721/IERC721Enumerable.sol",
      "exportedSymbols": {
        "IERC721Enumerable": [
          1625
        ]
      }
    },
    "children": [
      {
        "attributes": {
          "literals": [
            "solidity",
            ">=",
            "0.6",
            ".2",
            "<",
            "0.8",
            ".0"
          ]
        },
        "id": 1596,
        "name": "PragmaDirective",
        "src": "33:31:7"
      },
      {
        "attributes": {
          "SourceUnit": 1595,
          "absolutePath": "@openzeppelin/contracts/token/ERC721/IERC721.sol",
          "file": "./IERC721.sol",
          "scope": 1626,
          "symbolAliases": [
            null
          ],
          "unitAlias": ""
        },
        "id": 1597,
        "name": "ImportDirective",
        "src": "66:23:7"
      },
      {
        "attributes": {
          "abstract": false,
          "contractDependencies": [
            179,
            1594
          ],
          "contractKind": "interface",
          "fullyImplemented": false,
          "linearizedBaseContracts": [
            1625,
            1594,
            179
          ],
          "name": "IERC721Enumerable",
          "scope": 1626
        },
        "children": [
          {
            "attributes": {
              "text": "@title ERC-721 Non-Fungible Token Standard, optional enumeration extension\n@dev See https://eips.ethereum.org/EIPS/eip-721"
            },
            "id": 1598,
            "name": "StructuredDocumentation",
            "src": "91:136:7"
          },
          {
            "attributes": {
              "arguments": null
            },
            "children": [
              {
                "attributes": {
                  "contractScope": null,
                  "name": "IERC721",
                  "referencedDeclaration": 1594,
                  "type": "contract IERC721"
                },
                "id": 1599,
                "name": "UserDefinedTypeName",
                "src": "259:7:7"
              }
            ],
            "id": 1600,
            "name": "InheritanceSpecifier",
            "src": "259:7:7"
          },
          {
            "attributes": {
              "body": null,
              "functionSelector": "18160ddd",
              "implemented": false,
              "isConstructor": false,
              "kind": "function",
              "modifiers": [
                null
              ],
              "name": "totalSupply",
              "overrides": null,
              "scope": 1625,
              "stateMutability": "view",
              "virtual": false,
              "visibility": "external"
            },
            "children": [
              {
                "attributes": {
                  "text": "@dev Returns the total amount of tokens stored by the contract."
                },
                "id": 1601,
                "name": "StructuredDocumentation",
                "src": "274:82:7"
              },
              {
                "attributes": {
                  "parameters": [
                    null
                  ]
                },
                "children": [],
                "id": 1602,
                "name": "ParameterList",
                "src": "381:2:7"
              },
              {
                "children": [
                  {
                    "attributes": {
                      "constant": false,
                      "mutability": "mutable",
                      "name": "",
                      "overrides": null,
                      "scope": 1606,
                      "stateVariable": false,
                      "storageLocation": "default",
                      "type": "uint256",
                      "value": null,
                      "visibility": "internal"
                    },
                    "children": [
                      {
                        "attributes": {
                          "name": "uint256",
                          "type": "uint256"
                        },
                        "id": 1603,
                        "name": "ElementaryTypeName",
                        "src": "407:7:7"
                      }
                    ],
                    "id": 1604,
                    "name": "VariableDeclaration",
                    "src": "407:7:7"
                  }
                ],
                "id": 1605,
                "name": "ParameterList",
                "src": "406:9:7"
              }
            ],
            "id": 1606,
            "name": "FunctionDefinition",
            "src": "361:55:7"
          },
          {
            "attributes": {
              "body": null,
              "functionSelector": "2f745c59",
              "implemented": false,
              "isConstructor": false,
              "kind": "function",
              "modifiers": [
                null
              ],
              "name": "tokenOfOwnerByIndex",
              "overrides": null,
              "scope": 1625,
              "stateMutability": "view",
              "virtual": false,
              "visibility": "external"
            },
            "children": [
              {
                "attributes": {
                  "text": "@dev Returns a token ID owned by `owner` at a given `index` of its token list.\nUse along with {balanceOf} to enumerate all of ``owner``'s tokens."
                },
                "id": 1607,
                "name": "StructuredDocumentation",
                "src": "422:171:7"
              },
              {
                "children": [
                  {
                    "attributes": {
                      "constant": false,
                      "mutability": "mutable",
                      "name": "owner",
                      "overrides": null,
                      "scope": 1616,
                      "stateVariable": false,
                      "storageLocation": "default",
                      "type": "address",
                      "value": null,
                      "visibility": "internal"
                    },
                    "children": [
                      {
                        "attributes": {
                          "name": "address",
                          "stateMutability": "nonpayable",
                          "type": "address"
                        },
                        "id": 1608,
                        "name": "ElementaryTypeName",
                        "src": "627:7:7"
                      }
                    ],
                    "id": 1609,
                    "name": "VariableDeclaration",
                    "src": "627:13:7"
                  },
                  {
                    "attributes": {
                      "constant": false,
                      "mutability": "mutable",
                      "name": "index",
                      "overrides": null,
                      "scope": 1616,
                      "stateVariable": false,
                      "storageLocation": "default",
                      "type": "uint256",
                      "value": null,
                      "visibility": "internal"
                    },
                    "children": [
                      {
                        "attributes": {
                          "name": "uint256",
                          "type": "uint256"
                        },
                        "id": 1610,
                        "name": "ElementaryTypeName",
                        "src": "642:7:7"
                      }
                    ],
                    "id": 1611,
                    "name": "VariableDeclaration",
                    "src": "642:13:7"
                  }
                ],
                "id": 1612,
                "name": "ParameterList",
                "src": "626:30:7"
              },
              {
                "children": [
                  {
                    "attributes": {
                      "constant": false,
                      "mutability": "mutable",
                      "name": "tokenId",
                      "overrides": null,
                      "scope": 1616,
                      "stateVariable": false,
                      "storageLocation": "default",
                      "type": "uint256",
                      "value": null,
                      "visibility": "internal"
                    },
                    "children": [
                      {
                        "attributes": {
                          "name": "uint256",
                          "type": "uint256"
                        },
                        "id": 1613,
                        "name": "ElementaryTypeName",
                        "src": "680:7:7"
                      }
                    ],
                    "id": 1614,
                    "name": "VariableDeclaration",
                    "src": "680:15:7"
                  }
                ],
                "id": 1615,
                "name": "ParameterList",
                "src": "679:17:7"
              }
            ],
            "id": 1616,
            "name": "FunctionDefinition",
            "src": "598:99:7"
          },
          {
            "attributes": {
              "body": null,
              "functionSelector": "4f6ccce7",
              "implemented": false,
              "isConstructor": false,
              "kind": "function",
              "modifiers": [
                null
              ],
              "name": "tokenByIndex",
              "overrides": null,
              "scope": 1625,
              "stateMutability": "view",
              "virtual": false,
              "visibility": "external"
            },
            "children": [
              {
                "attributes": {
                  "text": "@dev Returns a token ID at a given `index` of all the tokens stored by the contract.\nUse along with {totalSupply} to enumerate all tokens."
                },
                "id": 1617,
                "name": "StructuredDocumentation",
                "src": "703:164:7"
              },
              {
                "children": [
                  {
                    "attributes": {
                      "constant": false,
                      "mutability": "mutable",
                      "name": "index",
                      "overrides": null,
                      "scope": 1624,
                      "stateVariable": false,
                      "storageLocation": "default",
                      "type": "uint256",
                      "value": null,
                      "visibility": "internal"
                    },
                    "children": [
                      {
                        "attributes": {
                          "name": "uint256",
                          "type": "uint256"
                        },
                        "id": 1618,
                        "name": "ElementaryTypeName",
                        "src": "894:7:7"
                      }
                    ],
                    "id": 1619,
                    "name": "VariableDeclaration",
                    "src": "894:13:7"
                  }
                ],
                "id": 1620,
                "name": "ParameterList",
                "src": "893:15:7"
              },
              {
                "children": [
                  {
                    "attributes": {
                      "constant": false,
                      "mutability": "mutable",
                      "name": "",
                      "overrides": null,
                      "scope": 1624,
                      "stateVariable": false,
                      "storageLocation": "default",
                      "type": "uint256",
                      "value": null,
                      "visibility": "internal"
                    },
                    "children": [
                      {
                        "attributes": {
                          "name": "uint256",
                          "type": "uint256"
                        },
                        "id": 1621,
                        "name": "ElementaryTypeName",
                        "src": "932:7:7"
                      }
                    ],
                    "id": 1622,
                    "name": "VariableDeclaration",
                    "src": "932:7:7"
                  }
                ],
                "id": 1623,
                "name": "ParameterList",
                "src": "931:9:7"
              }
            ],
            "id": 1624,
            "name": "FunctionDefinition",
            "src": "872:69:7"
          }
        ],
        "id": 1625,
        "name": "ContractDefinition",
        "src": "228:715:7"
      }
    ],
    "id": 1626,
    "name": "SourceUnit",
    "src": "33:911:7"
  },
  "compiler": {
    "name": "solc",
    "version": "0.6.6+commit.6c089d02.Linux.g++"
  },
  "networks": {},
  "schemaVersion": "3.3.4",
  "updatedAt": "2021-03-14T23:14:36.449Z",
  "devdoc": {
    "details": "See https://eips.ethereum.org/EIPS/eip-721",
    "methods": {
      "approve(address,uint256)": {
        "details": "Gives permission to `to` to transfer `tokenId` token to another account. The approval is cleared when the token is transferred.     * Only a single account can be approved at a time, so approving the zero address clears previous approvals.     * Requirements:     * - The caller must own the token or be an approved operator. - `tokenId` must exist.     * Emits an {Approval} event."
      },
      "balanceOf(address)": {
        "details": "Returns the number of tokens in ``owner``'s account."
      },
      "getApproved(uint256)": {
        "details": "Returns the account approved for `tokenId` token.     * Requirements:     * - `tokenId` must exist."
      },
      "isApprovedForAll(address,address)": {
        "details": "Returns if the `operator` is allowed to manage all of the assets of `owner`.     * See {setApprovalForAll}"
      },
      "ownerOf(uint256)": {
        "details": "Returns the owner of the `tokenId` token.     * Requirements:     * - `tokenId` must exist."
      },
      "safeTransferFrom(address,address,uint256)": {
        "details": "Safely transfers `tokenId` token from `from` to `to`, checking first that contract recipients are aware of the ERC721 protocol to prevent tokens from being forever locked.     * Requirements:     * - `from` cannot be the zero address. - `to` cannot be the zero address. - `tokenId` token must exist and be owned by `from`. - If the caller is not `from`, it must be have been allowed to move this token by either {approve} or {setApprovalForAll}. - If `to` refers to a smart contract, it must implement {IERC721Receiver-onERC721Received}, which is called upon a safe transfer.     * Emits a {Transfer} event."
      },
      "safeTransferFrom(address,address,uint256,bytes)": {
        "details": "Safely transfers `tokenId` token from `from` to `to`.      * Requirements:      * - `from` cannot be the zero address. - `to` cannot be the zero address. - `tokenId` token must exist and be owned by `from`. - If the caller is not `from`, it must be approved to move this token by either {approve} or {setApprovalForAll}. - If `to` refers to a smart contract, it must implement {IERC721Receiver-onERC721Received}, which is called upon a safe transfer.      * Emits a {Transfer} event."
      },
      "setApprovalForAll(address,bool)": {
        "details": "Approve or remove `operator` as an operator for the caller. Operators can call {transferFrom} or {safeTransferFrom} for any token owned by the caller.     * Requirements:     * - The `operator` cannot be the caller.     * Emits an {ApprovalForAll} event."
      },
      "supportsInterface(bytes4)": {
        "details": "Returns true if this contract implements the interface defined by `interfaceId`. See the corresponding https://eips.ethereum.org/EIPS/eip-165#how-interfaces-are-identified[EIP section] to learn more about how these ids are created.     * This function call must use less than 30 000 gas."
      },
      "tokenByIndex(uint256)": {
        "details": "Returns a token ID at a given `index` of all the tokens stored by the contract. Use along with {totalSupply} to enumerate all tokens."
      },
      "tokenOfOwnerByIndex(address,uint256)": {
        "details": "Returns a token ID owned by `owner` at a given `index` of its token list. Use along with {balanceOf} to enumerate all of ``owner``'s tokens."
      },
      "totalSupply()": {
        "details": "Returns the total amount of tokens stored by the contract."
      },
      "transferFrom(address,address,uint256)": {
        "details": "Transfers `tokenId` token from `from` to `to`.     * WARNING: Usage of this method is discouraged, use {safeTransferFrom} whenever possible.     * Requirements:     * - `from` cannot be the zero address. - `to` cannot be the zero address. - `tokenId` token must be owned by `from`. - If the caller is not `from`, it must be approved to move this token by either {approve} or {setApprovalForAll}.     * Emits a {Transfer} event."
      }
    },
    "title": "ERC-721 Non-Fungible Token Standard, optional enumeration extension"
  },
  "userdoc": {
    "methods": {}
  }
}