HTTP/1.1 400 Bad Request
X-Powered-By: Express
Content-Security-Policy: default-src 'none'
X-Content-Type-Options: nosniff
Content-Type: text/html; charset=utf-8
Content-Length: 1323
Date: Tue, 30 Mar 2021 22:28:14 GMT
Connection: keep-alive
Keep-Alive: timeout=5

<!DOCTYPE html>
<html lang="en">
<head>
<meta charset="utf-8">
<title>Error</title>
</head>
<body>
<pre>URIError: Failed to decode param &#39;/static/js/0.chunk.js/fH%E6Y%83U.js.jpg/&#39;<br> &nbsp; &nbsp;at decodeURIComponent (&lt;anonymous&gt;)<br> &nbsp; &nbsp;at decode_param (/Users/andrew/github/colledge/nft/node_modules/express/lib/router/layer.js:172:12)<br> &nbsp; &nbsp;at Layer.match (/Users/andrew/github/colledge/nft/node_modules/express/lib/router/layer.js:123:27)<br> &nbsp; &nbsp;at matchLayer (/Users/andrew/github/colledge/nft/node_modules/express/lib/router/index.js:574:18)<br> &nbsp; &nbsp;at next (/Users/andrew/github/colledge/nft/node_modules/express/lib/router/index.js:220:15)<br> &nbsp; &nbsp;at expressInit (/Users/andrew/github/colledge/nft/node_modules/express/lib/middleware/init.js:40:5)<br> &nbsp; &nbsp;at Layer.handle [as handle_request] (/Users/andrew/github/colledge/nft/node_modules/express/lib/router/layer.js:95:5)<br> &nbsp; &nbsp;at trim_prefix (/Users/andrew/github/colledge/nft/node_modules/express/lib/router/index.js:317:13)<br> &nbsp; &nbsp;at /Users/andrew/github/colledge/nft/node_modules/express/lib/router/index.js:284:7<br> &nbsp; &nbsp;at Function.process_params (/Users/andrew/github/colledge/nft/node_modules/express/lib/router/index.js:335:12)</pre>
</body>
</html>
