HTTP/1.1 404 Not Found
X-Powered-By: Express
Content-Security-Policy: default-src 'none'
X-Content-Type-Options: nosniff
Content-Type: text/html; charset=utf-8
Content-Length: 192
Vary: Accept-Encoding
Date: Tue, 30 Mar 2021 22:27:06 GMT
Connection: keep-alive
Keep-Alive: timeout=5

<!DOCTYPE html>
<html lang="en">
<head>
<meta charset="utf-8">
<title>Error</title>
</head>
<body>
<pre>Cannot GET /static/js/0.chunk.js/node_modules/js-sha3/src/sha3.js</pre>
</body>
</html>
