HTTP/1.1 200 Partial Content
X-Powered-By: Express
Accept-Ranges: bytes
Content-Range: bytes 0-1084/1085
Content-Type: text/html; charset=UTF-8
ETag: W/"43d-p8F1rbvclE+/b5VbsXIiwSp+Fl0"
Vary: Accept-Encoding
Content-Encoding: gzip
Date: Mon, 29 Mar 2021 22:11:57 GMT
Connection: keep-alive
Keep-Alive: timeout=5
Transfer-Encoding: chunked

<!DOCTYPE html>
<html lang="en">
  <head>
    <meta charset="utf-8" />
    <link rel="icon" href="/favicon.ico" />
    <meta name="viewport" content="width=device-width, initial-scale=1" />
    <meta name="theme-color" content="#000000" />
    <meta
      name="description"
      content="Web site created using create-react-app"
    />
    <link rel="apple-touch-icon" href="/logo192.png" />
    <link rel="manifest" href="/manifest.json" />
    <link href='https://unpkg.com/boxicons@2.0.7/css/boxicons.min.css' rel='stylesheet'