HTTP/1.1 200 Partial Content
X-Powered-By: Express
Accept-Ranges: bytes
Cache-Control: public, max-age=0
Last-Modified: Fri, 12 Mar 2021 03:35:54 GMT
ETag: W/"423e-178248141e3"
Content-Type: image/x-icon
Content-Range: bytes 0-16957/16958
Vary: Accept-Encoding
Content-Encoding: gzip
Date: Tue, 30 Mar 2021 22:26:41 GMT
Connection: keep-alive
Keep-Alive: timeout=5
Transfer-Encoding: chunked

