GET /static/js/main.chunk.js/src/assets/fonts/dripicons-v2.svg HTTP/1.1
Host: 192.168.1.33:3000
Accept-Encoding: gzip
Connection: keep-alive
User-Agent: Mozilla/5.0 SF/2.10b
Range: bytes=0-399999
Referer: http://192.168.1.33/

